INFO SELECT cuentas.id AS cuentas_id 
FROM cuentas 
WHERE cuentas.email = %(email_1)s
INFO {'email_1': 'geronimo@gmail.com'}
INFO ROLLBACK
INFO 127.0.0.1 - - [21/May/2021 02:22:06] "[37mGET /cuentas/login HTTP/1.1[0m" 200 -
INFO BEGIN (implicit)
INFO SELECT cuentas.id AS cuentas_id 
FROM cuentas 
WHERE cuentas.email = %(email_1)s
INFO {'email_1': 'geronimo@gmail.com'}
INFO ROLLBACK
INFO 127.0.0.1 - - [21/May/2021 02:22:16] "[37mGET /cuentas/login HTTP/1.1[0m" 200 -
INFO BEGIN (implicit)
INFO SELECT cuentas.id AS cuentas_id 
FROM cuentas 
WHERE cuentas.email = %(email_1)s
INFO {'email_1': 'geronimo@gmail.com'}
INFO ROLLBACK
INFO 127.0.0.1 - - [21/May/2021 02:22:21] "[37mGET /cuentas/login HTTP/1.1[0m" 200 -
INFO BEGIN (implicit)
INFO SELECT cuentas.id AS cuentas_id 
FROM cuentas 
WHERE cuentas.email = %(email_1)s
INFO {'email_1': 'geronimo@gmail1.com'}
INFO ROLLBACK
INFO 127.0.0.1 - - [21/May/2021 02:22:23] "[37mGET /cuentas/login HTTP/1.1[0m" 201 -
INFO BEGIN (implicit)
INFO SELECT cuentas.id AS cuentas_id 
FROM cuentas 
WHERE cuentas.email = %(email_1)s
INFO {'email_1': 'geronimo@gmail.com'}
INFO ROLLBACK
INFO 127.0.0.1 - - [21/May/2021 02:22:30] "[37mGET /cuentas/login HTTP/1.1[0m" 200 -
INFO  * Running on http://127.0.0.1:5000/ (Press CTRL+C to quit)
INFO select version()
INFO {}
INFO select current_schema()
INFO {}
INFO SELECT CAST('test plain returns' AS VARCHAR(60)) AS anon_1
INFO {}
INFO SELECT CAST('test unicode returns' AS VARCHAR(60)) AS anon_1
INFO {}
INFO show standard_conforming_strings
INFO {}
INFO BEGIN (implicit)
INFO SELECT cuentas.id AS cuentas_id 
FROM cuentas 
WHERE cuentas.email = %(email_1)s
INFO {'email_1': 'geronimo@gmail.com'}
INFO ROLLBACK
INFO 127.0.0.1 - - [21/May/2021 02:22:54] "[37mGET /cuentas/login HTTP/1.1[0m" 200 -
INFO BEGIN (implicit)
INFO SELECT cuentas.id AS cuentas_id 
FROM cuentas 
WHERE cuentas.email = %(email_1)s
INFO {'email_1': 'geronimo@gmail.1com'}
INFO ROLLBACK
INFO 127.0.0.1 - - [21/May/2021 02:22:57] "[37mGET /cuentas/login HTTP/1.1[0m" 201 -
INFO 127.0.0.1 - - [21/May/2021 02:23:12] "[33mGET /cuentas/login/ HTTP/1.1[0m" 404 -
INFO 127.0.0.1 - - [21/May/2021 02:23:16] "[33mGET /cuentas/login/ HTTP/1.1[0m" 404 -
INFO 127.0.0.1 - - [21/May/2021 02:24:06] "[33mGET /cuentas/login/ HTTP/1.1[0m" 404 -
INFO 127.0.0.1 - - [21/May/2021 02:24:38] "[33mGET /cuentas/login/ HTTP/1.1[0m" 404 -
INFO 127.0.0.1 - - [21/May/2021 02:24:59] "[31m[1mGET /cuentas/login HTTP/1.1[0m" 400 -
INFO 127.0.0.1 - - [21/May/2021 02:25:08] "[31m[1mGET /cuentas/login HTTP/1.1[0m" 400 -
INFO 127.0.0.1 - - [21/May/2021 02:25:14] "[31m[1mGET /cuentas/login HTTP/1.1[0m" 400 -
INFO BEGIN (implicit)
INFO SELECT cuentas.id AS cuentas_id 
FROM cuentas 
WHERE cuentas.email = %(email_1)s
INFO {'email_1': 'geronimo@gmail.com'}
INFO ROLLBACK
INFO 127.0.0.1 - - [21/May/2021 02:25:50] "[37mGET /cuentas/login HTTP/1.1[0m" 200 -
INFO BEGIN (implicit)
INFO SELECT cuentas.id AS cuentas_id 
FROM cuentas 
WHERE cuentas.email = %(email_1)s
INFO {'email_1': 'geronimo@gmail1.com'}
INFO ROLLBACK
INFO 127.0.0.1 - - [21/May/2021 02:25:55] "[37mGET /cuentas/login HTTP/1.1[0m" 201 -
INFO 127.0.0.1 - - [21/May/2021 02:28:10] "[33mGET /cuentas/login/ HTTP/1.1[0m" 404 -
INFO 127.0.0.1 - - [21/May/2021 02:31:09] "[33mGET /cuentas/login/ HTTP/1.1[0m" 404 -
INFO 127.0.0.1 - - [21/May/2021 02:31:39] "[33mGET /cuentas/login/ HTTP/1.1[0m" 404 -
INFO 127.0.0.1 - - [21/May/2021 02:31:53] "[33mGET /cuentas/login/ HTTP/1.1[0m" 404 -
INFO BEGIN (implicit)
INFO SELECT cuentas.id AS cuentas_id 
FROM cuentas 
WHERE cuentas.email = %(email_1)s
INFO {'email_1': 'geronimo@gmail.com'}
INFO ROLLBACK
INFO 127.0.0.1 - - [21/May/2021 02:32:00] "[37mGET /cuentas/login HTTP/1.1[0m" 200 -
INFO BEGIN (implicit)
INFO SELECT cuentas.id AS cuentas_id 
FROM cuentas 
WHERE cuentas.email = %(email_1)s
INFO {'email_1': 'geronimo@gmail.com'}
INFO ROLLBACK
INFO 127.0.0.1 - - [21/May/2021 02:32:05] "[37mGET /cuentas/login HTTP/1.1[0m" 200 -
INFO 127.0.0.1 - - [21/May/2021 02:33:08] "[33mGET /cuentas/login/ HTTP/1.1[0m" 404 -
INFO 127.0.0.1 - - [21/May/2021 02:33:37] "[31m[1mGET /cuentas/login HTTP/1.1[0m" 400 -
INFO 127.0.0.1 - - [21/May/2021 02:34:15] "[31m[1mGET /cuentas/login HTTP/1.1[0m" 400 -
INFO 127.0.0.1 - - [21/May/2021 02:34:35] "[33mGET /cuentas/login/ HTTP/1.1[0m" 404 -
INFO BEGIN (implicit)
INFO SELECT cuentas.id AS cuentas_id 
FROM cuentas 
WHERE cuentas.email = %(email_1)s
INFO {'email_1': 'geronimo@gmail.com'}
INFO ROLLBACK
INFO 127.0.0.1 - - [21/May/2021 02:34:53] "[37mGET /cuentas/login HTTP/1.1[0m" 200 -
INFO 127.0.0.1 - - [21/May/2021 02:35:22] "[33mGET /cuentas/login/ HTTP/1.1[0m" 404 -
INFO 127.0.0.1 - - [21/May/2021 02:36:25] "[33mGET /cuentas/login/ HTTP/1.1[0m" 404 -
INFO  * Running on http://127.0.0.1:5000/ (Press CTRL+C to quit)
INFO 127.0.0.1 - - [21/May/2021 02:37:11] "[33mGET /cuentas/login/ HTTP/1.1[0m" 404 -
INFO select version()
INFO {}
INFO select current_schema()
INFO {}
INFO SELECT CAST('test plain returns' AS VARCHAR(60)) AS anon_1
INFO {}
INFO SELECT CAST('test unicode returns' AS VARCHAR(60)) AS anon_1
INFO {}
INFO show standard_conforming_strings
INFO {}
INFO BEGIN (implicit)
INFO SELECT cuentas.id AS cuentas_id 
FROM cuentas 
WHERE cuentas.email = %(email_1)s
INFO {'email_1': 'geronimo@gmail.com'}
INFO ROLLBACK
INFO 127.0.0.1 - - [21/May/2021 02:37:16] "[37mGET /cuentas/login HTTP/1.1[0m" 200 -
INFO 127.0.0.1 - - [21/May/2021 02:37:23] "[33mGET /cuentas/login/ HTTP/1.1[0m" 404 -
INFO BEGIN (implicit)
INFO SELECT cuentas.id AS cuentas_id 
FROM cuentas 
WHERE cuentas.email = %(email_1)s
INFO {'email_1': 'geronimo@gmail.com'}
INFO ROLLBACK
INFO 127.0.0.1 - - [21/May/2021 02:37:40] "[37mGET /cuentas/login HTTP/1.1[0m" 200 -
INFO BEGIN (implicit)
INFO SELECT cuentas.id AS cuentas_id 
FROM cuentas 
WHERE cuentas.email = %(email_1)s
INFO {'email_1': 'geronimo@gmail1.com'}
INFO ROLLBACK
INFO 127.0.0.1 - - [21/May/2021 02:37:44] "[37mGET /cuentas/login HTTP/1.1[0m" 201 -
INFO BEGIN (implicit)
INFO SELECT cuentas.id AS cuentas_id 
FROM cuentas 
WHERE cuentas.email = %(email_1)s
INFO {'email_1': 'geronimo@gmail.com'}
INFO ROLLBACK
INFO 127.0.0.1 - - [21/May/2021 02:37:48] "[37mGET /cuentas/login HTTP/1.1[0m" 200 -
INFO 127.0.0.1 - - [21/May/2021 02:38:19] "[31m[1mGET /cuentas/login HTTP/1.1[0m" 400 -
INFO 127.0.0.1 - - [21/May/2021 02:39:53] "[31m[1mGET /cuentas/login HTTP/1.1[0m" 400 -
INFO 127.0.0.1 - - [21/May/2021 02:42:10] "[31m[1mGET /cuentas/login HTTP/1.1[0m" 400 -
INFO 127.0.0.1 - - [21/May/2021 02:42:45] "[31m[1mGET /cuentas/login HTTP/1.1[0m" 400 -
INFO 127.0.0.1 - - [21/May/2021 02:43:24] "[31m[1mGET /cuentas/login HTTP/1.1[0m" 400 -
INFO 127.0.0.1 - - [21/May/2021 02:44:03] "[31m[1mGET /cuentas/login HTTP/1.1[0m" 400 -
INFO 127.0.0.1 - - [21/May/2021 02:44:22] "[31m[1mGET /cuentas/login HTTP/1.1[0m" 400 -
INFO  * Running on http://127.0.0.1:5000/ (Press CTRL+C to quit)
INFO select version()
INFO {}
INFO select current_schema()
INFO {}
INFO SELECT CAST('test plain returns' AS VARCHAR(60)) AS anon_1
INFO {}
INFO SELECT CAST('test unicode returns' AS VARCHAR(60)) AS anon_1
INFO {}
INFO show standard_conforming_strings
INFO {}
INFO BEGIN (implicit)
INFO SELECT cuentas.id AS cuentas_id 
FROM cuentas 
WHERE cuentas.email = %(email_1)s
INFO {'email_1': 'geronimo@gmail.com'}
INFO ROLLBACK
INFO 127.0.0.1 - - [21/May/2021 02:45:07] "[37mGET /cuentas/login HTTP/1.1[0m" 200 -
INFO 127.0.0.1 - - [21/May/2021 02:45:09] "[31m[1mGET /cuentas/login HTTP/1.1[0m" 400 -
INFO 127.0.0.1 - - [21/May/2021 02:45:24] "[33mGET /cuentas/login/ HTTP/1.1[0m" 404 -
INFO 127.0.0.1 - - [21/May/2021 02:45:52] "[31m[1mGET /cuentas/login HTTP/1.1[0m" 400 -
INFO 127.0.0.1 - - [21/May/2021 02:46:45] "[31m[1mGET /cuentas/login HTTP/1.1[0m" 400 -
INFO 127.0.0.1 - - [21/May/2021 03:24:29] "[31m[1mGET /cuentas/login HTTP/1.1[0m" 400 -
INFO BEGIN (implicit)
INFO SELECT cuentas.id AS cuentas_id 
FROM cuentas 
WHERE cuentas.email = %(email_1)s
INFO {'email_1': 'geronimo@gmail.com'}
INFO ROLLBACK
INFO 127.0.0.1 - - [21/May/2021 03:24:34] "[37mGET /cuentas/login HTTP/1.1[0m" 200 -
INFO 127.0.0.1 - - [21/May/2021 03:25:27] "[31m[1mGET /cuentas/login HTTP/1.1[0m" 400 -
INFO 127.0.0.1 - - [21/May/2021 03:26:26] "[31m[1mGET /cuentas/login HTTP/1.1[0m" 400 -
INFO 127.0.0.1 - - [21/May/2021 03:26:42] "[31m[1mGET /cuentas/login HTTP/1.1[0m" 400 -
INFO BEGIN (implicit)
INFO SELECT cuentas.id AS cuentas_id 
FROM cuentas 
WHERE cuentas.email = %(email_1)s
INFO {'email_1': ''}
INFO ROLLBACK
INFO 127.0.0.1 - - [21/May/2021 03:27:00] "[37mGET /cuentas/login HTTP/1.1[0m" 201 -
INFO BEGIN (implicit)
INFO SELECT cuentas.id AS cuentas_id 
FROM cuentas 
WHERE cuentas.email = %(email_1)s
INFO {'email_1': 'geronimo@gmail.com'}
INFO ROLLBACK
INFO 127.0.0.1 - - [21/May/2021 03:27:07] "[37mGET /cuentas/login HTTP/1.1[0m" 200 -
INFO 127.0.0.1 - - [21/May/2021 03:27:57] "[31m[1mGET /cuentas/login HTTP/1.1[0m" 400 -
INFO 127.0.0.1 - - [21/May/2021 03:29:32] "[31m[1mGET /cuentas/login HTTP/1.1[0m" 400 -
INFO 127.0.0.1 - - [21/May/2021 03:30:10] "[31m[1mGET /cuentas/login HTTP/1.1[0m" 400 -
INFO 127.0.0.1 - - [21/May/2021 03:31:20] "[31m[1mGET /cuentas/login HTTP/1.1[0m" 400 -
INFO 127.0.0.1 - - [21/May/2021 03:32:35] "[31m[1mGET /cuentas/login HTTP/1.1[0m" 400 -
INFO BEGIN (implicit)
INFO SELECT cuentas.id AS cuentas_id 
FROM cuentas 
WHERE cuentas.email = %(email_1)s
INFO {'email_1': 'geronimo@gmail.com'}
INFO ROLLBACK
INFO 127.0.0.1 - - [21/May/2021 03:33:21] "[37mGET /cuentas/login HTTP/1.1[0m" 200 -
INFO 127.0.0.1 - - [21/May/2021 03:35:00] "[31m[1mGET /cuentas/login HTTP/1.1[0m" 400 -
