INFO 127.0.0.1 - - [21/May/2021 03:41:20] "[31m[1mGET /cuentas/login HTTP/1.1[0m" 400 -
INFO 127.0.0.1 - - [21/May/2021 03:41:31] "[31m[1mGET /cuentas/login HTTP/1.1[0m" 400 -
INFO BEGIN (implicit)
INFO SELECT cuentas.id AS cuentas_id 
FROM cuentas 
WHERE cuentas.email = %(email_1)s
INFO {'email_1': 'geronimo@gmail.com'}
INFO ROLLBACK
INFO 127.0.0.1 - - [21/May/2021 03:43:34] "[37mGET /cuentas/login HTTP/1.1[0m" 200 -
INFO BEGIN (implicit)
INFO SELECT cuentas.id AS cuentas_id 
FROM cuentas 
WHERE cuentas.email = %(email_1)s
INFO {'email_1': '1'}
INFO ROLLBACK
INFO 127.0.0.1 - - [21/May/2021 03:43:39] "[37mGET /cuentas/login HTTP/1.1[0m" 201 -
INFO BEGIN (implicit)
INFO SELECT cuentas.id AS cuentas_id 
FROM cuentas 
WHERE cuentas.email = %(email_1)s
INFO {'email_1': 'geronimo@gmail.com'}
INFO ROLLBACK
INFO 127.0.0.1 - - [21/May/2021 03:43:44] "[37mGET /cuentas/login HTTP/1.1[0m" 200 -
INFO 127.0.0.1 - - [21/May/2021 03:44:49] "[31m[1mGET /cuentas/login HTTP/1.1[0m" 400 -
INFO 127.0.0.1 - - [21/May/2021 03:45:35] "[31m[1mGET /cuentas/login HTTP/1.1[0m" 400 -
INFO 127.0.0.1 - - [21/May/2021 03:45:46] "[31m[1mGET /cuentas/login HTTP/1.1[0m" 400 -
INFO 127.0.0.1 - - [21/May/2021 03:46:10] "[31m[1mGET /cuentas/login HTTP/1.1[0m" 400 -
INFO 127.0.0.1 - - [21/May/2021 03:49:09] "[31m[1mGET /cuentas/login HTTP/1.1[0m" 400 -
INFO 127.0.0.1 - - [21/May/2021 03:49:09] "[33mGET /favicon.ico HTTP/1.1[0m" 404 -
INFO  * Running on http://127.0.0.1:5000/ (Press CTRL+C to quit)
INFO select version()
INFO {}
INFO select current_schema()
INFO {}
INFO SELECT CAST('test plain returns' AS VARCHAR(60)) AS anon_1
INFO {}
INFO SELECT CAST('test unicode returns' AS VARCHAR(60)) AS anon_1
INFO {}
INFO show standard_conforming_strings
INFO {}
INFO BEGIN (implicit)
INFO SELECT cuentas.id AS cuentas_id 
FROM cuentas 
WHERE cuentas.email = %(email_1)s
INFO {'email_1': 'geronimo@gmail.com'}
INFO ROLLBACK
INFO 127.0.0.1 - - [21/May/2021 03:52:23] "[37mGET /cuentas/login HTTP/1.1[0m" 200 -
INFO 127.0.0.1 - - [21/May/2021 03:52:39] "[31m[1mGET /cuentas/login HTTP/1.1[0m" 400 -
INFO  * Running on http://127.0.0.1:5000/ (Press CTRL+C to quit)
INFO 127.0.0.1 - - [21/May/2021 03:53:01] "[31m[1mGET /cuentas/login HTTP/1.1[0m" 400 -
INFO  * Running on http://127.0.0.1:5000/ (Press CTRL+C to quit)
INFO select version()
INFO {}
INFO select current_schema()
INFO {}
INFO SELECT CAST('test plain returns' AS VARCHAR(60)) AS anon_1
INFO {}
INFO SELECT CAST('test unicode returns' AS VARCHAR(60)) AS anon_1
INFO {}
INFO show standard_conforming_strings
INFO {}
INFO BEGIN (implicit)
INFO SELECT cuentas.id AS cuentas_id 
FROM cuentas 
WHERE cuentas.email = %(email_1)s
INFO {'email_1': 'geronimo@gmail.com'}
INFO ROLLBACK
INFO 127.0.0.1 - - [21/May/2021 03:54:06] "[35m[1mGET /cuentas/login HTTP/1.1[0m" 500 -
ERROR Error on request:
Traceback (most recent call last):
  File "C:\Users\Susa\AppData\Local\Programs\Python\Python39\Lib\site-packages\werkzeug\serving.py", line 323, in run_wsgi
    execute(self.server.app)
  File "C:\Users\Susa\AppData\Local\Programs\Python\Python39\Lib\site-packages\werkzeug\serving.py", line 312, in execute
    application_iter = app(environ, start_response)
  File "C:\Users\Susa\AppData\Local\Programs\Python\Python39\Lib\site-packages\flask\app.py", line 2464, in __call__
    return self.wsgi_app(environ, start_response)
  File "C:\Users\Susa\AppData\Local\Programs\Python\Python39\Lib\site-packages\flask\app.py", line 2450, in wsgi_app
    response = self.handle_exception(e)
  File "C:\Users\Susa\AppData\Local\Programs\Python\Python39\Lib\site-packages\flask_restx\api.py", line 638, in error_router
    return original_handler(f)
  File "C:\Users\Susa\AppData\Local\Programs\Python\Python39\Lib\site-packages\flask_cors\extension.py", line 165, in wrapped_function
    return cors_after_request(app.make_response(f(*args, **kwargs)))
  File "C:\Users\Susa\AppData\Local\Programs\Python\Python39\Lib\site-packages\flask\app.py", line 1867, in handle_exception
    reraise(exc_type, exc_value, tb)
  File "C:\Users\Susa\AppData\Local\Programs\Python\Python39\Lib\site-packages\flask\_compat.py", line 39, in reraise
    raise value
  File "C:\Users\Susa\AppData\Local\Programs\Python\Python39\Lib\site-packages\flask_restx\api.py", line 636, in error_router
    return self.handle_error(e)
  File "C:\Users\Susa\AppData\Local\Programs\Python\Python39\Lib\site-packages\flask\app.py", line 2447, in wsgi_app
    response = self.full_dispatch_request()
  File "C:\Users\Susa\AppData\Local\Programs\Python\Python39\Lib\site-packages\flask\app.py", line 1952, in full_dispatch_request
    rv = self.handle_user_exception(e)
  File "C:\Users\Susa\AppData\Local\Programs\Python\Python39\Lib\site-packages\flask_restx\api.py", line 638, in error_router
    return original_handler(f)
  File "C:\Users\Susa\AppData\Local\Programs\Python\Python39\Lib\site-packages\flask_cors\extension.py", line 165, in wrapped_function
    return cors_after_request(app.make_response(f(*args, **kwargs)))
  File "C:\Users\Susa\AppData\Local\Programs\Python\Python39\Lib\site-packages\flask\app.py", line 1821, in handle_user_exception
    reraise(exc_type, exc_value, tb)
  File "C:\Users\Susa\AppData\Local\Programs\Python\Python39\Lib\site-packages\flask\_compat.py", line 39, in reraise
    raise value
  File "C:\Users\Susa\AppData\Local\Programs\Python\Python39\Lib\site-packages\flask_restx\api.py", line 636, in error_router
    return self.handle_error(e)
  File "C:\Users\Susa\AppData\Local\Programs\Python\Python39\Lib\site-packages\flask\app.py", line 1950, in full_dispatch_request
    rv = self.dispatch_request()
  File "C:\Users\Susa\AppData\Local\Programs\Python\Python39\Lib\site-packages\flask\app.py", line 1936, in dispatch_request
    return self.view_functions[rule.endpoint](**req.view_args)
  File "C:\Users\Susa\AppData\Local\Programs\Python\Python39\Lib\site-packages\flask_restx\api.py", line 375, in wrapper
    resp = resource(*args, **kwargs)
  File "C:\Users\Susa\AppData\Local\Programs\Python\Python39\Lib\site-packages\flask\views.py", line 89, in view
    return self.dispatch_request(*args, **kwargs)
  File "C:\Users\Susa\AppData\Local\Programs\Python\Python39\Lib\site-packages\flask_restx\resource.py", line 44, in dispatch_request
    resp = meth(*args, **kwargs)
  File "C:\Users\Susa\Desktop\Nueva carpeta\red social\backend\api\cuentas_api.py", line 75, in get
    if(c):return c[0,0],200
TypeError: list indices must be integers or slices, not tuple
INFO  * Running on http://127.0.0.1:5000/ (Press CTRL+C to quit)
INFO select version()
INFO {}
INFO select current_schema()
INFO {}
INFO SELECT CAST('test plain returns' AS VARCHAR(60)) AS anon_1
INFO {}
INFO SELECT CAST('test unicode returns' AS VARCHAR(60)) AS anon_1
INFO {}
INFO show standard_conforming_strings
INFO {}
INFO BEGIN (implicit)
INFO SELECT cuentas.id AS cuentas_id 
FROM cuentas 
WHERE cuentas.email = %(email_1)s
INFO {'email_1': 'geronimo@gmail.com'}
INFO ROLLBACK
INFO 127.0.0.1 - - [21/May/2021 03:54:27] "[37mGET /cuentas/login HTTP/1.1[0m" 200 -
INFO  * Running on http://127.0.0.1:5000/ (Press CTRL+C to quit)
INFO select version()
INFO {}
INFO select current_schema()
INFO {}
INFO SELECT CAST('test plain returns' AS VARCHAR(60)) AS anon_1
INFO {}
INFO SELECT CAST('test unicode returns' AS VARCHAR(60)) AS anon_1
INFO {}
INFO show standard_conforming_strings
INFO {}
INFO BEGIN (implicit)
INFO SELECT cuentas.id AS cuentas_id 
FROM cuentas 
WHERE cuentas.email = %(email_1)s
INFO {'email_1': 'geronimo@gmail.com'}
INFO ROLLBACK
INFO 127.0.0.1 - - [22/May/2021 13:42:05] "[37mGET /cuentas/login HTTP/1.1[0m" 200 -
INFO BEGIN (implicit)
INFO SELECT cuentas.id AS cuentas_id 
FROM cuentas 
WHERE cuentas.email = %(email_1)s
INFO {'email_1': 'geronimo@gm1ail.com'}
INFO ROLLBACK
INFO 127.0.0.1 - - [22/May/2021 13:42:10] "[37mGET /cuentas/login HTTP/1.1[0m" 201 -
INFO  * Running on http://127.0.0.1:5000/ (Press CTRL+C to quit)
INFO select version()
INFO {}
INFO select current_schema()
INFO {}
INFO SELECT CAST('test plain returns' AS VARCHAR(60)) AS anon_1
INFO {}
INFO SELECT CAST('test unicode returns' AS VARCHAR(60)) AS anon_1
INFO {}
INFO show standard_conforming_strings
INFO {}
INFO BEGIN (implicit)
INFO SELECT cuentas.id AS cuentas_id 
FROM cuentas 
WHERE cuentas.email = %(email_1)s
INFO {'email_1': 'geronimo@gmail.com'}
INFO ROLLBACK
INFO 127.0.0.1 - - [22/May/2021 13:46:42] "[37mGET /cuentas/login HTTP/1.1[0m" 200 -
INFO BEGIN (implicit)
INFO SELECT cuentas.id AS cuentas_id 
FROM cuentas 
WHERE cuentas.email = %(email_1)s
INFO {'email_1': 'geronimo@g1mail.com'}
INFO ROLLBACK
INFO 127.0.0.1 - - [22/May/2021 13:46:46] "[37mGET /cuentas/login HTTP/1.1[0m" 200 -
INFO 127.0.0.1 - - [22/May/2021 13:47:11] "[31m[1mGET /cuentas/login HTTP/1.1[0m" 400 -
INFO  * Running on http://127.0.0.1:5000/ (Press CTRL+C to quit)
INFO select version()
INFO {}
INFO select current_schema()
INFO {}
INFO SELECT CAST('test plain returns' AS VARCHAR(60)) AS anon_1
INFO {}
INFO SELECT CAST('test unicode returns' AS VARCHAR(60)) AS anon_1
INFO {}
INFO show standard_conforming_strings
INFO {}
INFO BEGIN (implicit)
INFO SELECT cuentas.id AS cuentas_id 
FROM cuentas 
WHERE cuentas.email = %(email_1)s
INFO {'email_1': 'geronimo@g1mail.com'}
INFO ROLLBACK
INFO 127.0.0.1 - - [22/May/2021 13:49:03] "[37mGET /cuentas/login HTTP/1.1[0m" 200 -
INFO BEGIN (implicit)
INFO SELECT cuentas.id AS cuentas_id 
FROM cuentas 
WHERE cuentas.email = %(email_1)s
INFO {'email_1': 'geronimo@gmail.com'}
INFO ROLLBACK
INFO 127.0.0.1 - - [22/May/2021 13:49:08] "[37mGET /cuentas/login HTTP/1.1[0m" 200 -
INFO 127.0.0.1 - - [22/May/2021 13:49:12] "[31m[1mGET /cuentas/login HTTP/1.1[0m" 400 -
