INFO 127.0.0.1 - - [22/May/2021 17:11:12] "[31m[1mGET /cuentas/login HTTP/1.1[0m" 400 -
INFO BEGIN (implicit)
INFO SELECT cuentas.id AS cuentas_id 
FROM cuentas 
WHERE cuentas.email = %(email_1)s
INFO {'email_1': 'geronimo@gmail.com'}
INFO ROLLBACK
INFO 127.0.0.1 - - [22/May/2021 17:11:30] "[37mGET /cuentas/login HTTP/1.1[0m" 200 -
INFO  * Running on http://127.0.0.1:5000/ (Press CTRL+C to quit)
INFO 127.0.0.1 - - [22/May/2021 17:13:27] "[37mGET /cuentas/login HTTP/1.1[0m" 200 -
INFO 127.0.0.1 - - [22/May/2021 17:13:33] "[31m[1mGET /cuentas/login HTTP/1.1[0m" 400 -
INFO  * Running on http://127.0.0.1:5000/ (Press CTRL+C to quit)
INFO 127.0.0.1 - - [22/May/2021 17:16:33] "[37mGET /cuentas/login HTTP/1.1[0m" 200 -
INFO 127.0.0.1 - - [22/May/2021 17:16:35] "[37mGET /cuentas/login HTTP/1.1[0m" 200 -
INFO  * Running on http://127.0.0.1:5000/ (Press CTRL+C to quit)
INFO 127.0.0.1 - - [22/May/2021 17:18:29] "[37mGET /cuentas/login HTTP/1.1[0m" 200 -
INFO  * Running on http://127.0.0.1:5000/ (Press CTRL+C to quit)
INFO 127.0.0.1 - - [22/May/2021 17:19:13] "[31m[1mGET /cuentas/login HTTP/1.1[0m" 400 -
INFO 127.0.0.1 - - [22/May/2021 17:23:47] "[37mGET /cuentas/login HTTP/1.1[0m" 200 -
INFO 127.0.0.1 - - [22/May/2021 17:24:00] "[31m[1mGET /cuentas/login HTTP/1.1[0m" 400 -
INFO 127.0.0.1 - - [22/May/2021 17:24:38] "[31m[1mGET /cuentas/login HTTP/1.1[0m" 400 -
INFO 127.0.0.1 - - [22/May/2021 17:25:14] "[37mGET /cuentas/login HTTP/1.1[0m" 200 -
INFO 127.0.0.1 - - [22/May/2021 17:25:33] "[37mGET /cuentas/login HTTP/1.1[0m" 200 -
INFO 127.0.0.1 - - [22/May/2021 19:33:56] "[31m[1mGET /cuentas/login HTTP/1.1[0m" 400 -
INFO 127.0.0.1 - - [22/May/2021 19:41:52] "[37mGET /cuentas/login HTTP/1.1[0m" 200 -
INFO 127.0.0.1 - - [22/May/2021 21:56:22] "[37mGET /cuentas/login HTTP/1.1[0m" 200 -
INFO 127.0.0.1 - - [22/May/2021 21:56:35] "[37mGET /cuentas/login HTTP/1.1[0m" 200 -
INFO 127.0.0.1 - - [22/May/2021 21:56:50] "[31m[1mGET /cuentas/login HTTP/1.1[0m" 400 -
INFO 127.0.0.1 - - [22/May/2021 21:58:03] "[31m[1mGET /cuentas/login HTTP/1.1[0m" 400 -
INFO 127.0.0.1 - - [22/May/2021 21:59:02] "[31m[1mGET /cuentas/login HTTP/1.1[0m" 400 -
INFO 127.0.0.1 - - [22/May/2021 21:59:05] "[31m[1mGET /cuentas/login HTTP/1.1[0m" 400 -
INFO  * Running on http://127.0.0.1:5000/ (Press CTRL+C to quit)
INFO 127.0.0.1 - - [22/May/2021 21:59:44] "[37mGET /cuentas/login HTTP/1.1[0m" 200 -
INFO  * Running on http://127.0.0.1:5000/ (Press CTRL+C to quit)
INFO 127.0.0.1 - - [22/May/2021 22:02:32] "[31m[1mGET /cuentas/login HTTP/1.1[0m" 405 -
INFO 127.0.0.1 - - [22/May/2021 22:02:39] "[37mPUT /cuentas/login HTTP/1.1[0m" 200 -
INFO 127.0.0.1 - - [22/May/2021 22:02:44] "[37mOPTIONS /cuentas/login HTTP/1.1[0m" 200 -
INFO 127.0.0.1 - - [22/May/2021 22:02:44] "[37mPUT /cuentas/login HTTP/1.1[0m" 200 -
INFO  * Running on http://127.0.0.1:5000/ (Press CTRL+C to quit)
INFO 127.0.0.1 - - [22/May/2021 22:03:11] "[37mPUT /cuentas/login HTTP/1.1[0m" 200 -
INFO 127.0.0.1 - - [22/May/2021 22:03:13] "[37mOPTIONS /cuentas/login HTTP/1.1[0m" 200 -
INFO 127.0.0.1 - - [22/May/2021 22:03:13] "[37mPUT /cuentas/login HTTP/1.1[0m" 200 -
INFO  * Running on http://127.0.0.1:5000/ (Press CTRL+C to quit)
INFO 127.0.0.1 - - [22/May/2021 22:04:30] "[37mPUT /cuentas/login HTTP/1.1[0m" 200 -
INFO 127.0.0.1 - - [22/May/2021 22:04:55] "[37mOPTIONS /cuentas/login HTTP/1.1[0m" 200 -
INFO 127.0.0.1 - - [22/May/2021 22:04:55] "[37mPUT /cuentas/login HTTP/1.1[0m" 200 -
INFO  * Running on http://127.0.0.1:5000/ (Press CTRL+C to quit)
INFO select version()
INFO {}
INFO select current_schema()
INFO {}
INFO SELECT CAST('test plain returns' AS VARCHAR(60)) AS anon_1
INFO {}
INFO SELECT CAST('test unicode returns' AS VARCHAR(60)) AS anon_1
INFO {}
INFO show standard_conforming_strings
INFO {}
INFO BEGIN (implicit)
INFO SELECT cuentas.id AS cuentas_id 
FROM cuentas 
WHERE cuentas.email = %(email_1)s 
 LIMIT %(param_1)s
INFO {'email_1': 'geronimo@gmail.com', 'param_1': 1}
INFO ROLLBACK
INFO 127.0.0.1 - - [22/May/2021 22:05:19] "[37mPUT /cuentas/login HTTP/1.1[0m" 200 -
INFO BEGIN (implicit)
INFO SELECT cuentas.id AS cuentas_id 
FROM cuentas 
WHERE cuentas.email = %(email_1)s 
 LIMIT %(param_1)s
INFO {'email_1': 'geronimo1@gmail.com', 'param_1': 1}
INFO ROLLBACK
INFO 127.0.0.1 - - [22/May/2021 22:05:53] "[37mPUT /cuentas/login HTTP/1.1[0m" 200 -
INFO BEGIN (implicit)
INFO SELECT cuentas.id AS cuentas_id 
FROM cuentas 
WHERE cuentas.email = %(email_1)s 
 LIMIT %(param_1)s
INFO {'email_1': 'geronimo@gmail.com', 'param_1': 1}
INFO ROLLBACK
INFO 127.0.0.1 - - [22/May/2021 22:05:57] "[37mPUT /cuentas/login HTTP/1.1[0m" 200 -
INFO  * Running on http://127.0.0.1:5000/ (Press CTRL+C to quit)
INFO select version()
INFO {}
INFO select current_schema()
INFO {}
INFO SELECT CAST('test plain returns' AS VARCHAR(60)) AS anon_1
INFO {}
INFO SELECT CAST('test unicode returns' AS VARCHAR(60)) AS anon_1
INFO {}
INFO show standard_conforming_strings
INFO {}
INFO BEGIN (implicit)
INFO SELECT cuentas.id AS cuentas_id 
FROM cuentas 
WHERE cuentas.email = %(email_1)s 
 LIMIT %(param_1)s
INFO {'email_1': 'geronimo@gmail.com', 'param_1': 1}
INFO ROLLBACK
INFO 127.0.0.1 - - [22/May/2021 22:06:48] "[37mPUT /cuentas/login HTTP/1.1[0m" 200 -
INFO  * Running on http://127.0.0.1:5000/ (Press CTRL+C to quit)
INFO select version()
INFO {}
INFO select current_schema()
INFO {}
INFO SELECT CAST('test plain returns' AS VARCHAR(60)) AS anon_1
INFO {}
INFO SELECT CAST('test unicode returns' AS VARCHAR(60)) AS anon_1
INFO {}
INFO show standard_conforming_strings
INFO {}
INFO BEGIN (implicit)
INFO SELECT cuentas.id AS cuentas_id 
FROM cuentas 
WHERE cuentas.email = %(email_1)s 
 LIMIT %(param_1)s
INFO {'email_1': 'geronimo@gmail.com', 'param_1': 1}
INFO ROLLBACK
INFO 127.0.0.1 - - [22/May/2021 22:08:24] "[37mPUT /cuentas/login HTTP/1.1[0m" 200 -
INFO  * Running on http://127.0.0.1:5000/ (Press CTRL+C to quit)
INFO select version()
INFO {}
INFO select current_schema()
INFO {}
INFO SELECT CAST('test plain returns' AS VARCHAR(60)) AS anon_1
INFO {}
INFO SELECT CAST('test unicode returns' AS VARCHAR(60)) AS anon_1
INFO {}
INFO show standard_conforming_strings
INFO {}
INFO BEGIN (implicit)
INFO SELECT cuentas.id AS cuentas_id 
FROM cuentas 
WHERE cuentas.email = %(email_1)s
INFO {'email_1': 'geronimo@gmail.com'}
INFO ROLLBACK
INFO 127.0.0.1 - - [22/May/2021 22:08:55] "[37mPUT /cuentas/login HTTP/1.1[0m" 200 -
INFO  * Running on http://127.0.0.1:5000/ (Press CTRL+C to quit)
INFO select version()
INFO {}
INFO select current_schema()
INFO {}
INFO SELECT CAST('test plain returns' AS VARCHAR(60)) AS anon_1
INFO {}
INFO SELECT CAST('test unicode returns' AS VARCHAR(60)) AS anon_1
INFO {}
INFO show standard_conforming_strings
INFO {}
INFO BEGIN (implicit)
INFO SELECT cuentas.id AS cuentas_id, cuentas.email AS cuentas_email, cuentas."contraseņa" AS "cuentas_contraseņa" 
FROM cuentas 
WHERE cuentas.email = %(email_1)s
INFO {'email_1': 'geronimo@gmail.com'}
INFO ROLLBACK
INFO 127.0.0.1 - - [22/May/2021 22:09:49] "[37mPUT /cuentas/login HTTP/1.1[0m" 200 -
INFO  * Running on http://127.0.0.1:5000/ (Press CTRL+C to quit)
INFO select version()
INFO {}
INFO select current_schema()
INFO {}
INFO SELECT CAST('test plain returns' AS VARCHAR(60)) AS anon_1
INFO {}
INFO SELECT CAST('test unicode returns' AS VARCHAR(60)) AS anon_1
INFO {}
INFO show standard_conforming_strings
INFO {}
INFO BEGIN (implicit)
INFO SELECT cuentas.id AS cuentas_id, cuentas.email AS cuentas_email, cuentas."contraseņa" AS "cuentas_contraseņa" 
FROM cuentas 
WHERE cuentas.email = %(email_1)s 
 LIMIT %(param_1)s
INFO {'email_1': 'geronimo@gmail.com', 'param_1': 1}
INFO ROLLBACK
INFO 127.0.0.1 - - [22/May/2021 22:10:12] "[37mPUT /cuentas/login HTTP/1.1[0m" 200 -
INFO 127.0.0.1 - - [22/May/2021 22:18:05] "[31m[1mGET /cuentas/login HTTP/1.1[0m" 405 -
INFO BEGIN (implicit)
INFO SELECT cuentas.id AS cuentas_id, cuentas.email AS cuentas_email, cuentas."contraseņa" AS "cuentas_contraseņa" 
FROM cuentas 
WHERE cuentas.email = %(email_1)s 
 LIMIT %(param_1)s
INFO {'email_1': 'geronimo@gmail.com', 'param_1': 1}
INFO ROLLBACK
INFO 127.0.0.1 - - [22/May/2021 22:18:20] "[37mPUT /cuentas/login HTTP/1.1[0m" 200 -
INFO BEGIN (implicit)
INFO SELECT cuentas.id AS cuentas_id, cuentas.email AS cuentas_email, cuentas."contraseņa" AS "cuentas_contraseņa" 
FROM cuentas 
WHERE cuentas.email = %(email_1)s 
 LIMIT %(param_1)s
INFO {'email_1': 'geroni1mo@gmail.com', 'param_1': 1}
INFO ROLLBACK
INFO 127.0.0.1 - - [22/May/2021 22:18:24] "[37mPUT /cuentas/login HTTP/1.1[0m" 200 -
INFO 127.0.0.1 - - [22/May/2021 22:19:08] "[37mOPTIONS /cuentas/login HTTP/1.1[0m" 200 -
INFO BEGIN (implicit)
INFO SELECT cuentas.id AS cuentas_id, cuentas.email AS cuentas_email, cuentas."contraseņa" AS "cuentas_contraseņa" 
FROM cuentas 
WHERE cuentas.email = %(email_1)s 
 LIMIT %(param_1)s
INFO {'email_1': 'jajaja@aodsjho', 'param_1': 1}
INFO ROLLBACK
INFO 127.0.0.1 - - [22/May/2021 22:19:08] "[37mPUT /cuentas/login HTTP/1.1[0m" 200 -
INFO 127.0.0.1 - - [22/May/2021 22:19:09] "[33mGET /perfiles/[object%20Object] HTTP/1.1[0m" 404 -
INFO 127.0.0.1 - - [22/May/2021 22:19:22] "[37mOPTIONS /cuentas/login HTTP/1.1[0m" 200 -
INFO BEGIN (implicit)
INFO SELECT cuentas.id AS cuentas_id, cuentas.email AS cuentas_email, cuentas."contraseņa" AS "cuentas_contraseņa" 
FROM cuentas 
WHERE cuentas.email = %(email_1)s 
 LIMIT %(param_1)s
INFO {'email_1': 'asdasd', 'param_1': 1}
INFO ROLLBACK
INFO 127.0.0.1 - - [22/May/2021 22:19:22] "[37mPUT /cuentas/login HTTP/1.1[0m" 200 -
INFO 127.0.0.1 - - [22/May/2021 22:19:24] "[33mGET /perfiles/[object%20Object] HTTP/1.1[0m" 404 -
